Predicting of the pulmunary TB cases , Uganda
…
#Save training data and predicted values as RDS
save_data_location <- here::here("data","processed-data","logmod2_with_probs.rds")
saveRDS(logmod2_with_probs, file = save_data_location)

 #Calculate ROC curve
roc_curve_data <- yardstick::roc_curve(data = logmod2_with_probs, truth = tb, 
                                       .pred_YES)
#save the ROC curve as RDS

# Print ROC curve data
print(roc_curve_data)

# A tibble: 1,471 × 3
    .threshold specificity sensitivity
         <dbl>       <dbl>       <dbl>
 1 -Inf                  0       1    
 2    0.000735           0       1    
 3    0.00140            0       0.999
 4    0.00176            0       0.998
 5    0.00177            0       0.997
 6    0.00185            0       0.996
 7    0.00207            0       0.995
 8    0.00225            0       0.994
 9    0.00229            0       0.992
10    0.00247            0       0.991
# ℹ 1,461 more rows
…
